<?xml version="1.0" encoding="UTF-8" standalone="no"?>
<!-- Created with Inkscape (http://www.inkscape.org/) -->

<svg
   xmlns:dc="http://purl.org/dc/elements/1.1/"
   xmlns:cc="http://creativecommons.org/ns#"
   xmlns:rdf="http://www.w3.org/1999/02/22-rdf-syntax-ns#"
   xmlns:svg="http://www.w3.org/2000/svg"
   xmlns="http://www.w3.org/2000/svg"
   xmlns:sodipodi="http://sodipodi.sourceforge.net/DTD/sodipodi-0.dtd"
   xmlns:inkscape="http://www.inkscape.org/namespaces/inkscape"
   width="10.299486mm"
   height="7.4883885mm"
   viewBox="0 0 36.494242 26.53366"
   id="svg5102"
   version="1.1"
   inkscape:version="0.91 r13725"
   sodipodi:docname="inoviris.svg">
  <defs
     id="defs5104" />
  <sodipodi:namedview
     id="base"
     pagecolor="#ffffff"
     bordercolor="#666666"
     borderopacity="1.0"
     inkscape:pageopacity="0.0"
     inkscape:pageshadow="2"
     inkscape:zoom="0.35"
     inkscape:cx="-168.18145"
     inkscape:cy="344.69542"
     inkscape:document-units="px"
     inkscape:current-layer="layer1"
     showgrid="false"
     fit-margin-top="0"
     fit-margin-left="0"
     fit-margin-right="0"
     fit-margin-bottom="0"
     inkscape:window-width="1920"
     inkscape:window-height="1031"
     inkscape:window-x="0"
     inkscape:window-y="27"
     inkscape:window-maximized="1" />
  <metadata
     id="metadata5107">
    <rdf:RDF>
      <cc:Work
         rdf:about="">
        <dc:format>image/svg+xml</dc:format>
        <dc:type
           rdf:resource="http://purl.org/dc/dcmitype/StillImage" />
        <dc:title></dc:title>
      </cc:Work>
    </rdf:RDF>
  </metadata>
  <g
     inkscape:label="Layer 1"
     inkscape:groupmode="layer"
     id="layer1"
     transform="translate(-61.752877,-850.52396)">
    <g
       transform="matrix(0.19273252,0,0,0.19273252,356.49717,1034.6152)"
       id="g5442">
      <path
         sodipodi:nodetypes="ccccscccccccscsccccccccccscccscscccccccscccsccccccsccsccsccsscccccccsccscccssccccccccccsccccccccscccccccccccsccccccccsccssssccccscssccssscccccsscccccccccccccssssccccssscccccccccsccccccscccc"
         inkscape:connector-curvature="0"
         id="path5444"
         d="m -1466.9206,-817.79312 c -2.7085,-0.7278 -4.2915,-2.55 -5.1445,-5.9217 -0.2891,-1.1428 -0.3292,-2.2674 -0.3327,-9.3244 l -0.01,-8.0248 0.4705,-0.4709 c 1.0495,-1.0501 4.7914,-1.0495 5.7024,0 0.4165,0.4803 0.4177,0.5008 0.4198,7.2011 0,6.8958 0.078,7.7699 0.7867,9.133 1.1011,2.1164 4.1751,2.6212 6.132,1.0069 0.806,-0.6648 1.309,-1.5618 1.7329,-3.0899 0.248,-0.8937 0.2935,-2.0847 0.272,-7.1263 -0.015,-3.5942 0.049,-6.2487 0.1572,-6.5344 0.3469,-0.9125 1.0011,-1.1505 3.1617,-1.1505 2.2801,0 2.9941,0.2669 3.3373,1.2475 0.1567,0.4477 0.1788,3.326 0.083,10.8656 -0.1207,9.5454 -0.1537,10.296 -0.4756,10.8253 -0.8712,1.4327 -3.9824,1.4876 -4.9004,0.086 -0.1769,-0.2699 -0.4549,-1.0755 -0.6178,-1.79 -0.1629,-0.7145 -0.3794,-1.3063 -0.4812,-1.315 -0.1017,-0.01 -0.4618,0.4578 -0.8002,1.0368 -1.0926,1.8698 -2.3571,2.8442 -4.3986,3.3896 -1.2105,0.3234 -3.8153,0.3002 -5.101,-0.045 z m 27.7502,0.1815 c -0.2042,-0.04 -0.8308,-0.1649 -1.3924,-0.277 -1.5507,-0.3096 -3.5785,-1.3232 -4.6588,-2.3286 -2.333,-2.1713 -2.5078,-5.4238 -0.3231,-6.0121 1.2094,-0.3257 1.9923,6e-4 3.6175,1.5074 0.765,0.7094 1.6324,1.4147 1.9273,1.5672 1.7724,0.9165 5.3279,1.0586 6.8652,0.2743 1.296,-0.6611 1.6032,-2.1846 0.5998,-2.9739 -0.6354,-0.4997 -1.8599,-0.84 -5.0495,-1.4032 -4.5418,-0.802 -6.7652,-1.7645 -8.0098,-3.4677 -0.7059,-0.966 -0.8861,-1.4113 -1.134,-2.8042 -0.243,-1.3642 0.046,-3.308 0.6756,-4.5411 0.9906,-1.9408 3.3142,-3.5416 6.1447,-4.2333 1.8857,-0.4607 5.834,-0.4169 7.726,0.086 3.7,0.9831 5.8992,3.1223 5.9101,5.749 0.01,1.7322 -0.6248,2.4078 -2.549,2.7246 -1.11,0.1828 -2.1999,-0.3721 -2.8913,-1.4722 -1.148,-1.8266 -2.2933,-2.3935 -4.8592,-2.4053 -1.575,-0.01 -1.9756,0.054 -2.6417,0.4069 -1.2617,0.6676 -1.6956,1.9891 -1.0581,3.2221 0.3937,0.7613 1.7561,1.3607 4.3812,1.9274 1.1569,0.2498 2.7299,0.5905 3.4957,0.7572 2.2981,0.5002 4.1444,1.2974 5.1971,2.2438 1.137,1.0223 1.4166,1.5257 1.6427,2.9579 0.8245,5.2242 -3.658,8.668 -11.1805,8.5895 -1.1353,-0.012 -2.2313,-0.054 -2.4355,-0.095 z m 23.1135,-0.1535 c -2.5481,-0.5455 -4.359,-1.4759 -5.6351,-2.8953 -1.8683,-2.078 -1.8844,-4.9183 -0.031,-5.5234 1.2852,-0.4196 2.0133,-0.157 3.5719,1.2881 2.0349,1.8867 3.6586,2.5733 6.0858,2.5733 2.4212,0 3.9021,-0.7488 4.1137,-2.0799 0.094,-0.5908 0.032,-0.765 -0.4401,-1.2369 -0.6676,-0.6677 -1.7609,-1.0108 -5.0939,-1.5988 -4.3133,-0.761 -6.0934,-1.4455 -7.6218,-2.931 -1.2692,-1.2335 -1.6872,-2.511 -1.5934,-4.8704 0.093,-2.3384 0.6041,-3.5242 2.1134,-4.9037 2.0273,-1.8528 4.5446,-2.67 8.2437,-2.6761 5.2369,-0.01 8.4727,1.5152 9.753,4.5928 0.4156,0.9991 0.43,2.5328 0.03,3.144 -0.9573,1.4609 -3.6185,1.5699 -4.7078,0.1929 -1.3877,-1.7544 -2.1911,-2.4419 -3.2054,-2.7427 -1.9501,-0.5784 -4.6036,-0.2164 -5.4994,0.7502 -0.824,0.8891 -0.806,2.2612 0.041,3.108 0.6692,0.6693 2.0428,1.132 5.2992,1.7851 4.2643,0.8553 5.9855,1.476 7.5024,2.7056 1.1767,0.954 1.6179,2.0539 1.6323,4.069 0.01,1.4367 -0.058,1.8197 -0.4839,2.7328 -0.9245,1.9806 -2.8543,3.4039 -5.7513,4.242 -1.7688,0.5117 -6.4871,0.6673 -8.3225,0.2744 z m 27.0122,0.1496 c -5.7857,-0.931 -9.2481,-4.7645 -9.9603,-11.0276 -0.6543,-5.7544 1.7185,-10.7731 6.0616,-12.8205 2.0167,-0.9507 3.2653,-1.1887 6.1265,-1.1675 2.841,0.021 4.6123,0.3712 6.3612,1.2575 1.1809,0.5984 2.8939,2.1643 3.5013,3.2007 1.5071,2.5717 1.7851,7.0632 0.5111,8.2605 l -0.4709,0.4425 -7.6315,0.053 c -5.1605,0.035 -7.7106,0.1179 -7.8755,0.2548 -0.3399,0.2821 -0.3058,1.7651 0.066,2.8556 0.3537,1.0379 1.6318,2.4241 2.699,2.9273 0.9956,0.4694 2.6518,0.7322 3.7462,0.5946 1.9122,-0.2406 2.6845,-0.6196 4.1869,-2.055 1.0826,-1.0343 1.6158,-1.4055 2.2472,-1.5645 1.8174,-0.4576 3.2534,0.7006 3.1052,2.5042 -0.2151,2.6176 -2.7165,4.9029 -6.4279,5.8728 -1.3976,0.3653 -5.0426,0.6057 -6.2459,0.4121 z m 7.5338,-15.4746 c 0.1027,-0.1532 0.1508,-0.6412 0.1068,-1.0845 -0.1146,-1.1545 -0.9507,-2.2259 -2.2685,-2.9069 -1.0152,-0.5247 -1.2023,-0.557 -3.2249,-0.5569 -1.9716,0 -2.2246,0.041 -3.0922,0.4986 -0.9973,0.5261 -2.0266,1.5565 -2.3164,2.3188 -0.2847,0.7487 -0.2098,1.6906 0.1517,1.9063 0.2097,0.1252 2.1204,0.1778 5.3909,0.1485 4.2611,-0.038 5.0956,-0.09 5.2526,-0.3239 z m 12.4557,15.241 c -1.1787,-0.4071 -2.3281,-1.4503 -2.8833,-2.6168 -0.3944,-0.8285 -0.3981,-0.9538 -0.4495,-15.2684 -0.058,-15.973 -0.1126,-15.209 1.1392,-15.8029 0.4338,-0.2059 1.1383,-0.3033 2.1895,-0.3029 1.7588,0 2.617,0.3632 2.9668,1.2526 0.1413,0.3594 0.1652,4.4933 0.081,13.9701 -0.076,8.5319 -0.054,13.557 0.059,13.7257 0.1226,0.1824 0.554,0.2701 1.3715,0.2785 0.7023,0.01 1.315,0.1139 1.4902,0.2593 0.8319,0.6907 0.839,2.7586 0.013,3.7406 -0.9102,1.0816 -3.9368,1.4686 -5.9765,0.7642 z m 14.8641,0.1593 c -2.3989,-0.4286 -4.3463,-1.3524 -5.6954,-2.7014 -1.1249,-1.125 -1.5891,-2.1598 -1.5891,-3.5428 0,-1.3648 0.4138,-1.9985 1.4951,-2.2897 1.2235,-0.3295 2.046,0.02 3.709,1.575 1.6993,1.5892 2.8214,2.0986 4.9886,2.2649 2.8899,0.2217 4.845,-0.6859 4.845,-2.2491 0,-1.3564 -0.8512,-1.7558 -5.5696,-2.6139 -6.6787,-1.2145 -8.9576,-2.9284 -9.2328,-6.9438 -0.2715,-3.9615 2.0623,-6.8016 6.6024,-8.0346 1.9928,-0.5411 5.9975,-0.5377 8.0429,0.01 3.5014,0.9324 5.5457,2.812 5.8497,5.3785 0.2166,1.8291 -0.5499,2.8255 -2.3739,3.086 -1.3285,0.1896 -2.1165,-0.2288 -3.2654,-1.7339 -1.1469,-1.5027 -2.1009,-2.0334 -3.9311,-2.1866 -1.7862,-0.1496 -3.2961,0.2107 -4.0524,0.967 -0.5338,0.5338 -0.6098,0.7307 -0.6098,1.581 0,0.8633 0.07,1.0372 0.6285,1.564 0.7502,0.7076 2.1811,1.1806 5.6467,1.8663 4.2116,0.8336 6.3436,1.7158 7.6028,3.1464 0.8561,0.9726 1.1597,1.9421 1.1597,3.7034 0,3.3199 -2.3197,5.7756 -6.4977,6.8785 -1.4193,0.3747 -6.2441,0.5476 -7.7532,0.278 z m -172.792,-0.2684 c -1.0929,-0.3865 -2.0757,-1.5196 -2.2341,-2.5755 -0.2196,-1.4647 0.042,-2.5158 0.8192,-3.2932 0.8662,-0.8661 1.9287,-1.1696 3.6088,-1.031 2.1548,0.1779 3.1111,1.0321 3.2462,2.8999 0.1116,1.5428 -0.075,2.3248 -0.7326,3.0741 -0.9474,1.0789 -3.0857,1.4994 -4.7075,0.9257 z m 22.0924,0.075 c -2.4106,-0.3441 -3.9959,-1.2827 -5.1605,-3.0553 -0.4292,-0.6532 -0.8639,-1.1626 -0.966,-1.132 -0.1021,0.031 -0.2934,0.5509 -0.425,1.1562 -0.5209,2.3945 -1.252,2.9916 -3.4338,2.8046 -1.3389,-0.1148 -1.9159,-0.482 -2.1645,-1.3775 -0.2991,-1.0766 -0.2622,-30.448 0.039,-31.0339 0.4887,-0.9508 1.1361,-1.2203 3.0736,-1.2796 1.442,-0.044 1.9249,0.011 2.4442,0.2785 1.0817,0.5573 1.1108,0.7265 1.1138,6.4954 0,3.4813 0.069,5.2744 0.1994,5.3552 0.1082,0.067 0.6904,-0.3494 1.2937,-0.9249 1.7503,-1.6695 3.5876,-2.3308 6.4755,-2.3308 3.6255,0 6.5347,1.7632 8.066,4.8887 0.8425,1.7197 1.2051,3.1769 1.3947,5.6063 0.6206,7.9515 -2.6352,13.6412 -8.3297,14.5566 -1.3694,0.2201 -2.0353,0.2188 -3.6202,-0.01 z m 1.8636,-5.4331 c 2.0836,-0.9702 3.2007,-3.1307 3.3727,-6.5227 0.2427,-4.7884 -1.4822,-7.1332 -5.255,-7.1434 -2.9793,-0.01 -4.5759,1.1248 -5.3934,3.827 -0.4949,1.636 -0.4421,4.7923 0.1068,6.3796 0.9224,2.6676 2.4699,3.8885 4.934,3.8928 0.9773,0 1.5314,-0.1057 2.2349,-0.4333 z m 14.1023,4.9353 c -1.1866,-0.7493 -1.1191,-0.015 -1.0593,-11.5346 0.035,-6.7695 0.125,-10.7265 0.2524,-11.1268 0.1396,-0.4385 0.3813,-0.698 0.8213,-0.8818 1.2808,-0.5352 3.5182,-0.1898 3.9457,0.609 0.1013,0.1892 0.2412,0.6767 0.311,1.0832 0.2469,1.4388 0.4802,2.1315 0.7178,2.1315 0.1323,0 0.5613,-0.4657 0.9534,-1.035 1.427,-2.072 3.0089,-2.9529 5.3069,-2.9551 1.6407,0 2.2563,0.2573 2.6662,1.1211 0.3383,0.7129 0.3616,2.5032 0.045,3.4086 -0.3568,1.0181 -0.9787,1.3434 -2.9092,1.5215 -2.655,0.245 -3.8638,1.0491 -4.8708,3.2401 -0.4039,0.8791 -0.4262,1.1784 -0.5228,7.0445 -0.073,4.4455 -0.1664,6.2566 -0.3395,6.6007 -0.4046,0.8042 -0.9125,0.9896 -2.904,1.0595 -1.5753,0.056 -1.9409,0.012 -2.4135,-0.2864 z"
         style="fill:#000000" />
      <path
         sodipodi:nodetypes="ccccsssccsscscsccscccscccssccscsccccscccccccsscsssscscscsccsccccccccccscsccscccscssccccsscccscsccscsccsccsscccscccccccccscccssccscccccccccccccccsccsccsscscccssscccsccsscscscs"
         style="fill:#000000"
         d="m -1456.3973,-853.72132 c -2.2569,-0.3739 -4.6912,-1.6142 -6.307,-3.2135 -2.1708,-2.1485 -3.139,-4.6891 -3.2903,-8.6335 -0.264,-6.8778 2.4297,-11.1546 8.0276,-12.7457 1.9118,-0.5435 5.9495,-0.5897 7.9695,-0.091 4.973,1.227 7.6706,4.6097 8.2605,10.3585 0.464,4.5207 -0.7398,8.3219 -3.5212,11.1192 -2.3881,2.4018 -4.8691,3.3544 -8.6161,3.3085 -1.1323,-0.014 -2.2677,-0.06 -2.523,-0.1023 z m 5.1054,-5.8991 c 2.4695,-1.1558 3.5695,-3.388 3.3852,-6.8692 -0.2169,-4.0966 -1.9049,-6.0937 -5.3721,-6.356 -3.5517,-0.2685 -5.7097,1.6498 -6.2969,5.5975 -0.3797,2.553 0.247,5.2207 1.5576,6.6303 1.456,1.5659 4.5356,2.0226 6.7262,0.9974 z m -74.4459,5.6683 c -1.0295,-0.1749 -1.5232,-0.4824 -1.879,-1.1703 -0.2768,-0.5353 -0.2925,-1.5599 -0.1717,-11.1799 0.1423,-11.3236 0.1226,-11.1111 1.0761,-11.6484 0.255,-0.1438 1.1077,-0.2367 2.1895,-0.2386 1.4073,0 1.8784,0.067 2.2898,0.3361 1.0461,0.6855 1.0438,0.658 1.0438,12.1611 0,10.2975 -0.01,10.5749 -0.373,11.0372 -0.5779,0.7347 -2.2909,1.023 -4.1755,0.7028 z m 95.0113,0.01 c -0.7242,-0.1864 -1.5108,-0.6672 -1.9644,-1.2008 -0.5588,-0.6571 -1.0134,-1.8239 -3.0106,-7.7277 -1.0536,-3.1143 -2.4652,-7.2758 -3.137,-9.2478 -1.4133,-4.148 -1.5392,-5.1417 -0.7323,-5.7764 0.4115,-0.3238 0.7509,-0.3848 2.1409,-0.3848 2.1512,0 2.8384,0.2787 3.3029,1.3397 0.3162,0.722 1.1646,3.6298 3.6137,12.3858 1.0061,3.5971 1.4181,4.2618 2.0467,3.3024 0.281,-0.4288 2.0206,-6.7425 3.442,-12.4919 0.4275,-1.729 0.9018,-3.3386 1.054,-3.5768 0.4767,-0.7464 1.4094,-0.999 3.4308,-0.9291 3.0625,0.1057 3.1087,0.4228 0.9948,6.839 -2.06,6.2529 -4.8343,14.1388 -5.3028,15.0733 -0.4853,0.9678 -1.1945,1.7565 -1.9203,2.1354 -0.6225,0.325 -3.0786,0.4861 -3.9584,0.2597 z m -84.7077,-0.1779 c -0.8639,-0.1887 -1.435,-0.5127 -1.6666,-0.9453 -0.2131,-0.3982 -0.2393,-21.1415 -0.028,-21.898 0.2116,-0.7565 1.0118,-1.1988 2.2997,-1.2712 1.734,-0.098 2.3603,0.2869 2.8001,1.7186 0.4996,1.6267 0.7062,2.135 0.8677,2.135 0.079,0 0.409,-0.4134 0.7331,-0.9185 1.15,-1.7921 2.6497,-2.8121 4.8065,-3.2693 3.2662,-0.6922 6.3705,0.1147 8.2754,2.1512 1.0078,1.0774 1.5014,2.0285 2.0041,3.8617 0.3611,1.3164 0.3965,2.0139 0.4696,9.2482 0.058,5.7577 0.022,7.9317 -0.1384,8.2307 -0.363,0.6784 -1.2938,0.9319 -3.4217,0.9319 -1.0706,0 -2.1537,-0.094 -2.4069,-0.2097 -0.8655,-0.3944 -0.9082,-0.8037 -0.7679,-7.3514 0.1393,-6.4969 0.032,-8.0097 -0.6722,-9.475 -0.5703,-1.1866 -1.6791,-1.7718 -3.383,-1.7855 -1.6097,-0.013 -2.6569,0.4845 -3.5854,1.7035 -1.2007,1.5762 -1.2594,2.0007 -1.2754,9.2279 -0.01,3.5738 -0.078,6.6867 -0.1553,6.9176 -0.077,0.2308 -0.3865,0.5468 -0.6869,0.7021 -0.6281,0.3249 -3.1096,0.5051 -4.0687,0.2955 z m 25.8055,-0.041 c -0.9824,-0.1889 -1.598,-0.7992 -1.7789,-1.7633 -0.068,-0.3651 -0.051,-5.292 0.038,-10.9488 l 0.1626,-10.2852 0.4835,-0.4831 c 0.5864,-0.586 2.3045,-0.8193 3.3913,-0.4607 0.7724,0.2549 1.0625,0.7079 1.4818,2.3137 0.1564,0.5988 0.3626,1.167 0.4584,1.2628 0.1084,0.1084 0.4906,-0.2345 1.0124,-0.9082 1.1752,-1.5173 1.7439,-2.0119 2.9445,-2.561 2.2788,-1.0422 5.6412,-1.0485 7.8991,-0.015 1.2194,0.5582 2.6562,1.9718 3.3042,3.2507 1.0624,2.0963 1.1654,2.9819 1.3133,11.2865 0.1501,8.4263 0.1399,8.5244 -0.9374,9.0356 -0.7389,0.3506 -4.2754,0.4085 -4.9925,0.082 -0.8449,-0.385 -0.8861,-0.7803 -0.8319,-7.9823 0.045,-6.0479 0.016,-6.8683 -0.2818,-7.8585 -0.4609,-1.5323 -1.3453,-2.3969 -2.7501,-2.6886 -2.45,-0.5086 -4.378,0.6154 -5.3935,3.1445 -0.3896,0.9703 -0.4148,1.36 -0.5067,7.8389 -0.095,6.6569 -0.1062,6.8273 -0.4945,7.2152 -0.6533,0.6528 -2.6514,0.8846 -4.5221,0.5248 z m 121.7271,-9.2713 c -2.4889,-0.3008 -5.0766,-1.3932 -6.4901,-2.7399 -0.8101,-0.7719 -1.6189,-2.5554 -1.6189,-3.5699 0,-1.1775 0.5963,-2.0623 1.54,-2.2855 1.2447,-0.2944 1.8947,-0.03 3.4371,1.4006 0.7823,0.7254 1.8674,1.5226 2.4113,1.7716 1.3793,0.6315 3.4116,0.877 5.0172,0.6062 1.6628,-0.2804 2.3664,-0.7164 2.6424,-1.6373 0.4981,-1.6628 -0.5328,-2.2955 -5.0817,-3.1188 -4.9746,-0.9003 -6.2926,-1.405 -7.9408,-3.0412 -1.3031,-1.2937 -1.6888,-2.336 -1.6727,-4.5205 0.028,-3.8495 2.2037,-6.2819 6.7019,-7.4936 1.4911,-0.4016 5.6743,-0.4458 7.3332,-0.078 2.8164,0.6253 4.8224,1.8664 5.7522,3.5589 0.4676,0.8511 0.5544,1.215 0.5569,2.3343 0,1.066 -0.07,1.4076 -0.3682,1.7429 -0.5166,0.5799 -1.414,0.9226 -2.4167,0.9226 -1.1373,0 -1.8067,-0.3801 -2.5346,-1.4391 -1.3244,-1.9269 -2.4071,-2.4621 -4.9677,-2.4555 -2.5838,0.01 -3.912,0.8656 -3.912,2.53 0,0.6604 0.1133,0.9351 0.6033,1.4625 0.7578,0.8155 1.8429,1.198 5.5068,1.9409 1.5633,0.317 3.3667,0.7485 4.0077,0.9589 2.6011,0.8539 4.2764,2.2115 4.7258,3.8296 0.32,1.1521 0.236,3.2575 -0.1734,4.3512 -0.8878,2.371 -3.442,4.1195 -6.9657,4.7683 -1.4307,0.2633 -4.6858,0.3704 -6.0933,0.2003 z m -44.3885,-0.3679 c -0.5787,-0.1031 -1.0887,-0.3384 -1.3924,-0.6424 l -0.4793,-0.4796 0.069,-10.8096 c 0.054,-8.6038 0.1197,-10.9096 0.3192,-11.2999 0.3319,-0.6491 1.1291,-0.9021 2.8424,-0.9017 1.6087,4e-4 2.5825,0.3713 2.9232,1.1136 0.1499,0.3267 0.2324,3.6584 0.2787,11.2489 0.071,11.7175 0.1124,11.2143 -0.9478,11.6194 -0.684,0.2614 -2.5555,0.3398 -3.6126,0.1513 z m 28.3894,0.025 c -1.0167,-0.1885 -1.5632,-0.518 -1.7726,-1.069 -0.1929,-0.5074 -0.2027,-16.3225 -0.012,-20.0077 0.111,-2.1488 0.1283,-2.2193 0.6371,-2.5983 0.7099,-0.5288 3.1434,-0.6586 4.2709,-0.2281 1.4016,0.5353 1.3265,-0.1051 1.3849,11.8051 0.037,7.4441 -0.01,10.8176 -0.1518,11.1613 -0.1123,0.271 -0.4252,0.5935 -0.6955,0.7166 -0.613,0.2793 -2.673,0.4032 -3.6607,0.2201 z m -18.0781,-0.1987 c -0.3448,-0.088 -0.8461,-0.3788 -1.1139,-0.6464 -0.4845,-0.484 -0.4873,-0.5035 -0.5506,-3.8709 -0.035,-1.8613 -0.01,-6.7538 0.068,-10.872 0.1308,-7.4163 0.1361,-7.4924 0.5517,-7.9757 0.3622,-0.4211 0.5954,-0.4978 1.7027,-0.5604 0.8742,-0.049 1.4988,0.018 1.96,0.2104 0.7156,0.299 0.7701,0.4124 1.3026,2.7109 0.1283,0.5539 0.3254,1.0371 0.438,1.0739 0.1127,0.036 0.6653,-0.5449 1.2281,-1.2926 0.8053,-1.07 1.2756,-1.4963 2.2086,-2.0022 1.1064,-0.5997 1.2987,-0.6426 2.8828,-0.6426 1.436,0 1.7608,0.057 2.1098,0.3714 0.5961,0.5364 0.7779,1.1371 0.7694,2.542 -0.013,2.1737 -0.6165,2.7951 -2.9118,2.9992 -2.7328,0.2431 -4.274,1.2642 -5.1127,3.3872 -0.4135,1.0468 -0.4381,1.3754 -0.5405,7.2232 -0.059,3.3695 -0.1774,6.2757 -0.2632,6.4582 -0.086,0.1825 -0.4094,0.4627 -0.719,0.6228 -0.6537,0.338 -3.0905,0.4982 -4.0105,0.2636 z m -123.8956,-16.9048 c -1.4954,-0.4503 -2.4845,-1.6659 -2.6761,-3.2891 -0.2048,-1.7355 0.5703,-3.3495 1.9845,-4.1318 1.5433,-0.8538 4.174,-0.5156 5.215,0.6705 0.8968,1.0216 1.3376,3.1159 0.9213,4.3772 -0.614,1.8607 -3.2831,3.024 -5.4447,2.3732 z m 112.9193,-10.1522 c -1.6975,-0.8705 -2.3831,-2.6902 -1.7865,-4.7424 0.5398,-1.8569 2.2289,-2.9003 4.3443,-2.6836 1.3465,0.138 2.2531,0.6296 2.9155,1.5809 0.5202,0.7474 0.5604,0.9224 0.5604,2.4427 0,1.5493 -0.03,1.6755 -0.5669,2.338 -0.7925,0.9792 -1.7902,1.4489 -3.2389,1.5248 -1.0324,0.054 -1.3542,-0.012 -2.2279,-0.4604 z m 28.7119,0.2267 c -1.5049,-0.5366 -2.3386,-1.8653 -2.3454,-3.7379 -0.01,-1.4305 0.5505,-2.5496 1.6506,-3.3245 0.7257,-0.5111 0.9155,-0.5563 2.3064,-0.5491 1.6542,0.01 2.3507,0.2607 3.1864,1.1542 1.0952,1.1709 1.2898,3.7028 0.3891,5.0638 -0.9366,1.4153 -3.3258,2.0572 -5.1871,1.3935 z"
         id="path5446"
         inkscape:connector-curvature="0" />
      <path
         sodipodi:nodetypes="sscccsssccssccccccccccscscccccssccsscscccccssssc"
         style="fill:#000000"
         d="m -1452.3082,-899.14772 c -4.6493,-3.8968 -10.109,-4.9143 -18.6994,-3.4847 -5.3432,0.8892 -9.6269,0.8517 -12.3466,-0.1073 -8.9099,-3.1446 -12.7312,-12.0594 -8.6814,-20.2536 2.5138,-5.0862 8.3957,-8.2699 14.2002,-7.6857 5.5869,0.5621 10.971,3.4441 16.5975,8.8843 5.5413,5.3581 9.919,11.9949 11.9782,18.1602 1.9126,5.7262 0.6488,7.5867 -3.0485,4.4877 z m 8.975,1.0616 c -0.6392,-0.8259 -0.653,-1.5351 -0.074,-3.8006 2.1682,-8.4771 9.9933,-19.0645 18.1123,-24.5054 3.5012,-2.3462 5.7051,-3.293 9.3188,-4.003 9.3925,-1.8456 17.4106,4.66 17.4351,14.146 0.017,6.323 -3.8232,11.2867 -10.4621,13.5254 -2.24,0.7553 -2.6272,0.7931 -6.5198,0.6349 -2.2762,-0.093 -5.3109,-0.3925 -6.744,-0.6672 -3.4941,-0.6694 -7.906,-0.6762 -10.4228,-0.017 -2.4908,0.6538 -5.7143,2.3259 -7.4808,3.8807 -1.3749,1.2104 -2.6071,1.5239 -3.1632,0.8051 z m -3.5392,-10.9835 c -0.2979,-0.1734 -1.0391,-1.3028 -1.6467,-2.5098 -2.6738,-5.3095 -5.2747,-8.5269 -11.5613,-14.3027 -5.4056,-4.966 -7.4257,-7.5777 -8.4651,-10.9433 -2.1779,-7.0514 1.4374,-14.7354 8.1727,-17.3704 4.5266,-1.771 10.0714,-0.9693 13.2083,1.9096 l 1.0054,0.9225 1.447,-1.1104 c 1.9128,-1.4681 3.4847,-2.1411 5.9022,-2.5272 8.2495,-1.318 15.9463,5.5301 15.9266,14.17 -0.016,4.416 -2.3138,8.6187 -7.1664,13.0728 -7.6193,6.9942 -10.3491,10.224 -13.3571,15.8042 -1.7107,3.1735 -2.2288,3.6048 -3.4656,2.8847 z m 2.0756,-8.4791 c 1.8365,-3.3621 4.148,-6.1916 7.9691,-9.7539 6.9185,-6.4503 8.4021,-8.2364 9.2424,-11.1273 0.6138,-2.1113 0.4092,-4.3845 -0.5913,-6.5699 -1.0685,-2.3339 -2.4398,-3.7401 -4.7622,-4.8834 -4.5783,-2.2539 -9.4274,-0.8063 -12.3253,3.6795 l -0.8464,1.3101 -0.788,-1.3447 c -1.7651,-3.0118 -4.5883,-4.611 -8.1703,-4.6284 -1.9096,-0.016 -2.598,0.1338 -4.0473,0.8433 -3.4248,1.6755 -5.7606,5.3549 -5.7606,9.0732 0,4.009 1.6891,6.5207 8.532,12.6874 4.2188,3.8019 6.7683,6.7908 8.8526,10.378 0.7687,1.3228 1.4353,2.4052 1.4813,2.4052 0.046,0 0.5925,-0.9311 1.214,-2.0691 z"
         id="path5448"
         inkscape:connector-curvature="0" />
    </g>
  </g>
</svg>
